module gitlab.com/mswill/mail-service

go 1.18

require (
	github.com/go-chi/chi/v5 v5.0.7
	github.com/go-chi/cors v1.2.1
	github.com/vanng822/go-premailer v1.20.1
	github.com/xhit/go-simple-mail/v2 v2.11.0
)

require (
	github.com/PuerkitoBio/goquery v1.5.1 // indirect
	github.com/andybalholm/cascadia v1.1.0 // indirect
	github.com/go-test/deep v1.0.8 // indirect
	github.com/gorilla/css v1.0.0 // indirect
	github.com/toorop/go-dkim v0.0.0-20201103131630-e1cd1a0a5208 // indirect
	github.com/vanng822/css v1.0.1 // indirect
	golang.org/x/net v0.0.0-20200904194848-62affa334b73 // indirect
)
